xof 0303txt 0032


template VertexDuplicationIndices { 
 <b8d65549-d7c9-4995-89cf-53a9a8b031e3>
 DWORD nIndices;
 DWORD nOriginalVertices;
 array DWORD indices[nIndices];
}
template XSkinMeshHeader {
 <3cf169ce-ff7c-44ab-93c0-f78f62d172e2>
 WORD nMaxSkinWeightsPerVertex;
 WORD nMaxSkinWeightsPerFace;
 WORD nBones;
}
template SkinWeights {
 <6f0d123b-bad2-4167-a0d0-80224f25fabb>
 STRING transformNodeName;
 DWORD nWeights;
 array DWORD vertexIndices[nWeights];
 array float weights[nWeights];
 Matrix4x4 matrixOffset;
}

Frame RootFrame {

  FrameTransformMatrix {
    1.000000,0.000000,0.000000,0.000000,
    0.000000,1.000000,0.000000,0.000000,
    0.000000,0.000000,-1.000000,0.000000,
    0.000000,0.000000,0.000000,1.000000;;
  }
    Frame Bone {

      FrameTransformMatrix {
        0.716000,-0.353800,0.601800,0.000000,
        -0.601800,-0.749800,0.275100,0.000000,
        0.353800,-0.559100,-0.749800,0.000000,
        0.000000,0.000000,0.000000,1.000000;;
      }
      Frame Bone_003 {

        FrameTransformMatrix {
          -0.688700,0.654100,-0.312700,0.000000,
          0.404400,0.704600,0.583100,0.000000,
          0.601800,0.275100,-0.749800,0.000000,
          0.000000,3.634600,0.000000,1.000000;;
        }
      }
  }  // End of the Bone Bone 
      Frame Cube_002 {

        FrameTransformMatrix {
          1.000000,0.000000,0.000000,0.000000,
          0.000000,1.000000,0.000000,0.000000,
          0.000000,0.000000,1.000000,0.000000,
          1.972100,-2.115500,0.000000,1.000000;;
        }
Mesh {
24;
2.972100; -1.115500; -1.000000;,
2.972100; -7.346600; -1.000000;,
0.972100; -7.346600; -1.000000;,
0.972100; -1.115500; -1.000000;,
2.972100; -1.115500; 1.000000;,
0.972100; -1.115500; 1.000000;,
0.972100; -7.346600; 1.000000;,
2.972100; -7.346600; 1.000000;,
2.972100; -1.115500; -1.000000;,
2.972100; -1.115500; 1.000000;,
2.972100; -7.346600; 1.000000;,
2.972100; -7.346600; -1.000000;,
2.972100; -7.346600; -1.000000;,
2.972100; -7.346600; 1.000000;,
0.972100; -7.346600; 1.000000;,
0.972100; -7.346600; -1.000000;,
0.972100; -7.346600; -1.000000;,
0.972100; -7.346600; 1.000000;,
0.972100; -1.115500; 1.000000;,
0.972100; -1.115500; -1.000000;,
2.972100; -1.115500; 1.000000;,
2.972100; -1.115500; -1.000000;,
0.972100; -1.115500; -1.000000;,
0.972100; -1.115500; 1.000000;;
6;
4; 0, 3, 2, 1;,
4; 4, 7, 6, 5;,
4; 8, 11, 10, 9;,
4; 12, 15, 14, 13;,
4; 16, 19, 18, 17;,
4; 20, 23, 22, 21;;
  MeshMaterialList {
    1;
    6;
    0,
    0,
    0,
    0,
    0,
    0;;
  Material Material {
    0.800000; 0.800000; 0.800000;1.0;;
    0.500000;
    1.000000; 1.000000; 1.000000;;
    0.0; 0.0; 0.0;;
  }  //End of Material
    }  //End of MeshMaterialList
  MeshNormals {
24;
    0.577349; 0.577349; -0.577349;,
    0.577349; -0.577349; -0.577349;,
    -0.577349; -0.577349; -0.577349;,
    -0.577349; 0.577349; -0.577349;,
    0.577349; 0.577349; 0.577349;,
    -0.577349; 0.577349; 0.577349;,
    -0.577349; -0.577349; 0.577349;,
    0.577349; -0.577349; 0.577349;,
    0.577349; 0.577349; -0.577349;,
    0.577349; 0.577349; 0.577349;,
    0.577349; -0.577349; 0.577349;,
    0.577349; -0.577349; -0.577349;,
    0.577349; -0.577349; -0.577349;,
    0.577349; -0.577349; 0.577349;,
    -0.577349; -0.577349; 0.577349;,
    -0.577349; -0.577349; -0.577349;,
    -0.577349; -0.577349; -0.577349;,
    -0.577349; -0.577349; 0.577349;,
    -0.577349; 0.577349; 0.577349;,
    -0.577349; 0.577349; -0.577349;,
    0.577349; 0.577349; 0.577349;,
    0.577349; 0.577349; -0.577349;,
    -0.577349; 0.577349; -0.577349;,
    -0.577349; 0.577349; 0.577349;;
6;
4; 0, 3, 2, 1;,
4; 4, 7, 6, 5;,
4; 8, 11, 10, 9;,
4; 12, 15, 14, 13;,
4; 16, 19, 18, 17;,
4; 20, 23, 22, 21;;
}  //End of MeshNormals
  XSkinMeshHeader {
    0; 
    0; 
    4; 
  }
  SkinWeights {
    "Bone_001"; 
     0; 
          -0.717600,0.696500,0.000000,0.000000,
          -0.696500,-0.717600,0.000000,0.000000,
          0.000000,0.000000,1.000000,0.000000,
          0.000000,0.000000,0.000000,1.000000;;
        }
  SkinWeights {
    "Bone_002"; 
     0; 
          -0.999600,-0.030000,0.000000,0.000000,
          0.030000,-0.999600,0.000000,0.000000,
          0.000000,0.000000,1.000000,0.000000,
          2.438600,-2.366200,0.000000,1.000000;;
        }
  SkinWeights {
    "Bone_003"; 
     0; 
          -0.997400,0.071900,0.000000,0.000000,
          -0.071900,-0.997400,-0.000000,0.000000,
          0.000000,-0.000000,1.000000,0.000000,
          -2.377500,-2.560800,-1.000000,1.000000;;
        }
  SkinWeights {
    "Bone"; 
     0; 
          0.716000,-0.601800,0.353800,0.000000,
          -0.353800,-0.749800,-0.559100,0.000000,
          0.601800,0.275100,-0.749800,0.000000,
          0.000000,0.000000,0.000000,1.000000;;
        }
  } // End of XSkinMeshHeader
  }  // End of the Object Cube.002 
        Frame Cube_001 {

          FrameTransformMatrix {
            1.000000,0.000000,0.000000,0.000000,
            0.000000,1.000000,0.000000,0.000000,
            0.000000,0.000000,1.000000,0.000000,
            -2.043800,-2.151400,0.000000,1.000000;;
          }
Mesh {
24;
1.000000; 1.000000; -1.000000;,
1.000000; -5.231100; -1.000000;,
-1.000000; -5.231100; -1.000000;,
-1.000000; 1.000000; -1.000000;,
1.000000; 1.000000; 1.000000;,
-1.000000; 1.000000; 1.000000;,
-1.000000; -5.231100; 1.000000;,
1.000000; -5.231100; 1.000000;,
1.000000; 1.000000; -1.000000;,
1.000000; 1.000000; 1.000000;,
1.000000; -5.231100; 1.000000;,
1.000000; -5.231100; -1.000000;,
1.000000; -5.231100; -1.000000;,
1.000000; -5.231100; 1.000000;,
-1.000000; -5.231100; 1.000000;,
-1.000000; -5.231100; -1.000000;,
-1.000000; -5.231100; -1.000000;,
-1.000000; -5.231100; 1.000000;,
-1.000000; 1.000000; 1.000000;,
-1.000000; 1.000000; -1.000000;,
1.000000; 1.000000; 1.000000;,
1.000000; 1.000000; -1.000000;,
-1.000000; 1.000000; -1.000000;,
-1.000000; 1.000000; 1.000000;;
6;
4; 0, 3, 2, 1;,
4; 4, 7, 6, 5;,
4; 8, 11, 10, 9;,
4; 12, 15, 14, 13;,
4; 16, 19, 18, 17;,
4; 20, 23, 22, 21;;
  MeshMaterialList {
    1;
    6;
    0,
    0,
    0,
    0,
    0,
    0;;
  Material Material {
    0.800000; 0.800000; 0.800000;1.0;;
    0.500000;
    1.000000; 1.000000; 1.000000;;
    0.0; 0.0; 0.0;;
  }  //End of Material
    }  //End of MeshMaterialList
  MeshNormals {
24;
    0.577349; 0.577349; -0.577349;,
    0.577349; -0.577349; -0.577349;,
    -0.577349; -0.577349; -0.577349;,
    -0.577349; 0.577349; -0.577349;,
    0.577349; 0.577349; 0.577349;,
    -0.577349; 0.577349; 0.577349;,
    -0.577349; -0.577349; 0.577349;,
    0.577349; -0.577349; 0.577349;,
    0.577349; 0.577349; -0.577349;,
    0.577349; 0.577349; 0.577349;,
    0.577349; -0.577349; 0.577349;,
    0.577349; -0.577349; -0.577349;,
    0.577349; -0.577349; -0.577349;,
    0.577349; -0.577349; 0.577349;,
    -0.577349; -0.577349; 0.577349;,
    -0.577349; -0.577349; -0.577349;,
    -0.577349; -0.577349; -0.577349;,
    -0.577349; -0.577349; 0.577349;,
    -0.577349; 0.577349; 0.577349;,
    -0.577349; 0.577349; -0.577349;,
    0.577349; 0.577349; 0.577349;,
    0.577349; 0.577349; -0.577349;,
    -0.577349; 0.577349; -0.577349;,
    -0.577349; 0.577349; 0.577349;;
6;
4; 0, 3, 2, 1;,
4; 4, 7, 6, 5;,
4; 8, 11, 10, 9;,
4; 12, 15, 14, 13;,
4; 16, 19, 18, 17;,
4; 20, 23, 22, 21;;
}  //End of MeshNormals
  }  // End of the Mesh Cube.001 
        }
 // End of the Object Cube.001 
        Frame Cube {

          FrameTransformMatrix {
            1.000000,0.000000,0.000000,0.000000,
            0.000000,1.000000,0.000000,0.000000,
            0.000000,0.000000,1.000000,0.000000,
            0.000000,-1.075700,0.000000,1.000000;;
          }
Mesh {
24;
1.000000; 4.729100; -1.000000;,
1.000000; -1.000000; -1.000000;,
-1.000000; -1.000000; -1.000000;,
-1.000000; 4.729100; -1.000000;,
1.000000; 4.729100; 1.000000;,
-1.000000; 4.729100; 1.000000;,
-1.000000; -1.000000; 1.000000;,
1.000000; -1.000000; 1.000000;,
1.000000; 4.729100; -1.000000;,
1.000000; 4.729100; 1.000000;,
1.000000; -1.000000; 1.000000;,
1.000000; -1.000000; -1.000000;,
1.000000; -1.000000; -1.000000;,
1.000000; -1.000000; 1.000000;,
-1.000000; -1.000000; 1.000000;,
-1.000000; -1.000000; -1.000000;,
-1.000000; -1.000000; -1.000000;,
-1.000000; -1.000000; 1.000000;,
-1.000000; 4.729100; 1.000000;,
-1.000000; 4.729100; -1.000000;,
1.000000; 4.729100; 1.000000;,
1.000000; 4.729100; -1.000000;,
-1.000000; 4.729100; -1.000000;,
-1.000000; 4.729100; 1.000000;;
6;
4; 0, 3, 2, 1;,
4; 4, 7, 6, 5;,
4; 8, 11, 10, 9;,
4; 12, 15, 14, 13;,
4; 16, 19, 18, 17;,
4; 20, 23, 22, 21;;
  MeshMaterialList {
    1;
    6;
    0,
    0,
    0,
    0,
    0,
    0;;
  Material Material {
    0.800000; 0.800000; 0.800000;1.0;;
    0.500000;
    1.000000; 1.000000; 1.000000;;
    0.0; 0.0; 0.0;;
  }  //End of Material
    }  //End of MeshMaterialList
  MeshNormals {
24;
    0.577349; 0.577349; -0.577349;,
    0.577349; -0.577349; -0.577349;,
    -0.577349; -0.577349; -0.577349;,
    -0.577349; 0.577349; -0.577349;,
    0.577349; 0.577349; 0.577349;,
    -0.577349; 0.577349; 0.577349;,
    -0.577349; -0.577349; 0.577349;,
    0.577349; -0.577349; 0.577349;,
    0.577349; 0.577349; -0.577349;,
    0.577349; 0.577349; 0.577349;,
    0.577349; -0.577349; 0.577349;,
    0.577349; -0.577349; -0.577349;,
    0.577349; -0.577349; -0.577349;,
    0.577349; -0.577349; 0.577349;,
    -0.577349; -0.577349; 0.577349;,
    -0.577349; -0.577349; -0.577349;,
    -0.577349; -0.577349; -0.577349;,
    -0.577349; -0.577349; 0.577349;,
    -0.577349; 0.577349; 0.577349;,
    -0.577349; 0.577349; -0.577349;,
    0.577349; 0.577349; 0.577349;,
    0.577349; 0.577349; -0.577349;,
    -0.577349; 0.577349; -0.577349;,
    -0.577349; 0.577349; 0.577349;;
6;
4; 0, 3, 2, 1;,
4; 4, 7, 6, 5;,
4; 8, 11, 10, 9;,
4; 12, 15, 14, 13;,
4; 16, 19, 18, 17;,
4; 20, 23, 22, 21;;
}  //End of MeshNormals
  }  // End of the Mesh Cube 
        }
 // End of the Object Cube 
}  // End of the Root Frame
