index
{
       1   2       4               8

   0   1   8   9   2   3  10  11   4   5  12  13   6   7  14  15
  32  33  40  41  34  35  42  43  36  37  44  45  38  39  46  47  *16
  64  65  72  73  66  67  74  75  68  69  76  77  70  71  78  79  *32
  96  97 104 105  98  99 106 107 100 101 108 109 102 103 110 111
  16  17  24  25  18  19  26  27  20  21  28  29  22  23  30  31  *64
  48  49  56  57  50  51  58  59  52  53  60  61  54  55  62  63
  80  81  88  89  82  83  90  91  84  85  92  93  86  87  94  95
 112 113 120 121 114 115 122 123 116 117 124 125 118 119 126 127}