﻿■	■	■	■	■	■	■	■	■	■	■	■	■	■	■	■	■	■	■	■	■
■	■	■	■	■	■	■	■	■	■	■	■	■	■	■	■	■	■	■	誠	納
泡	程	析	遮	戒	井	及	模	算	霧	熟	＃	鈍	賭	欺	鹿	式	炸	裂	索	詮
眩	罠	千	塗	羽	柵	緊	粗	何	俺	行	世	界	紀	事	前	符	来	見	一	絡
分	寂	心	賃	言	物	知	外	君	私	宛	今	男	島	老	緒	幕	処	菓	場	鎖
食	夢	女	賞	所	者	時	消	探	当	無	儀	話	鍵	捜	中	目	公	声	謎	間
為	鍵	密	闇	掌	僕	留	句	般	誰	聞	連	夫	扉	統	顔	丈	少	我	他	立
合	助	対	刀	侮	辱	秘	通	頼	冒	帰	刑	夜	絶	船	即	方	込	全	良	忘
凱	追	旅	起	険	供	抜	遠	最	感	役	各	入	旋	遂	日	欠	堅	主	会	向
年	早	別	褒	宝	変	度	後	星	授	矢	配	現	覚	選	急	二	居	座	願	勝
怪	漁	鼻	影	違	離	遅	訣	繋	視	勇	笑	奪	馳	々	切	厄	父	犬	白	跳
祝	仮	強	押	仲	面	毛	回	倒	拒	持	画	近	戻	望	負	傷	刀	拐	優	内
赦	秒	数	敵	槍	珍	姿	歩	左	英	雄	破	求	鷹	周	蹴	費	衝	狙	経	験
値	便	表	歳	元	災	先	宙	残	閉	移	動	走	眠	与	敢	壊	臆	病	犠	牲
滅	竜	床	落	思	踏	特	加	停	応	化	右	死	襲	由	進	滑	陽	頭	済	限
昼	五	楽	道	昇	朝	照	確	甲	更	辿	着	断	途	光	身	番	武	器	考	傑
性	意	味	同	景	色	長	待	彼	悪	穴	飛	友	集	植	逃	雅	料	街	幸	危
決	房	記	判	掃	部	備	完	隠	試	遊	姫	形	撫	規	材	成	置	尾	計	作
準	卵	仕	命	真	音	宮	裁	娘	聴	嘘	殿	憶	信	城	奴	福	返	己	拠	戦
冗	談	康	答	弱	黙	呑	欲	理	調	犯	予	止	博	件	解	削	舎	渡	深	策
屈	装	努	挽	捕	失	刻	例	息	航	敗	得	訳	放	矛	告	罪	次	参	機	巣